,ASSET_DATABASE_ID,LABEL,TYPE,LAST_CLOSE_VALUE_IN_CURR
0,597,ABERDEEN Global - Japanese Equity Fund - A2 -,FUND,"9,2358 €"
1,598,AB Science,STOCK,"11,98 €"
2,599,Accenture,STOCK,"81,27 $"
3,600,Accor,STOCK,"38,7 €"
4,601,Acea,STOCK,"10,63 €"
5,602,Adidas,STOCK,"78,5 €"
6,603,Adobe Systems,STOCK,"64,64 $"
7,604,ADP,STOCK,"97,5 €"
8,605,Agrogeneration,STOCK,"1,01 €"
9,606,Airbus Group,STOCK,"53,29 €"
10,607,Air France - KLM,STOCK,"11,46 €"
11,608,Air Liquide,STOCK,"97,24 €"
12,609,Akka Technologies,STOCK,"24,38 €"
13,610,Akzo Nobel,STOCK,"54,75 €"
14,611,Albioma (Sechilienne-Sidec),STOCK,"19,5 €"
15,612,Allianz N,STOCK,"124,5 €"
16,613,Alstom,STOCK,"29,12 €"
17,614,Altamir,STOCK,"11,3 €"
18,615,Alten,STOCK,"37,7 €"
19,616,Altran Technologies,STOCK,"8,304 €"
20,916,Alvarion,STOCK,"0,2694 $"
21,617,Amadeus IT Hold -A-,STOCK,"31,9 €"
22,618,Amazon.Com,STOCK,"308,84 $"
23,619,American Tower REIT,STOCK,"88,39 $"
24,1018,Amilton Premium,FUND,"106,76 €"
25,620,Amphenol-A,STOCK,"96,83 $"
26,917,Amundi Oblig Internationales - P -,FUND,"171,05 €"
27,621,Amundi Treso Etat -IC-,FUND,"241172,52 €"
28,623,Aperam Reg.,STOCK,"23,92 €"
29,624,A P Moller Maersk  B,STOCK,14280 DKK
30,625,Apple,STOCK,"628,65 $"
31,626,Argan,STOCK,"15,95 €"
32,627,Arkema,STOCK,"74,87 €"
33,628,Aryzta,STOCK,"82,85 S₣"
34,629,Assystem,STOCK,"22,53 €"
35,630,ATARI RGPT,STOCK,"0,33 €"
36,631,Atos,STOCK,"65,1 €"
37,632,Aufeminin,STOCK,"31,8 €"
38,639,Baring International Umbrella - Hong Kong China- A -,FUND,"597,79 €"
39,640,Barry Callebaut N,STOCK,1184 S₣
40,641,Basf,STOCK,"84,499 €"
41,652,BlackRock World Gold Fund - E2 -,FUND,"19,28 €"
42,656,Bouygues,STOCK,"34,44 €"
43,931,Carmignac Patrimoine - E - EUR Acc,FUND,"146,26 €"
44,660,Carmignac Portfolio Emerging  Patrimoine  - E -,FUND,"99,26 €"
45,932,Carmignac Securite  - A - EUR Acc,FUND,"1656,24 €"
46,661,Carnival,STOCK,"40,02 $"
47,662,Carrefour,STOCK,"26,675 €"
48,663,Casino Guichard,STOCK,"93,64 €"
49,1019,CBT Vol 7.5 (260),FUND,"108,91 €"
50,664,Cellectis,STOCK,"6,21 €"
51,933,Centifolia - C -,FUND,"301,05 €"
52,934,CG Nouvelle Asie,FUND,"488,79 €"
53,665,Chargeurs,STOCK,"5,44 €"
54,666,Christian Dior,STOCK,"151,4 €"
55,667,CIS,STOCK,"20,05 €"
56,668,Claranova,STOCK,"1,37 €"
57,935,CM-CIC PEA Serenite,FUND,"191,86 €"
58,669,CNIM,STOCK,"111,25 €"
59,670,Coca-Cola,STOCK,"40,86 $"
60,671,Colgate-Palmolive,STOCK,"68,21 $"
61,936,Comgest Growth India USD (260),FUND,"32,03 $"
62,937,Comgest Monde - C -,FUND,"1127,51 €"
63,938,Com Gr La Am EUR-Ac (260),FUND,"11,46 €"
64,672,Continental,STOCK,"172,8 €"
65,673,Costco Wholesale,STOCK,"115,68 $"
66,674,Credit Agricole,STOCK,"11,385 €"
67,675,CRH PLC,STOCK,"16,44 £"
68,676,CS Communication et Systemes,STOCK,"2,08 €"
69,677,CTS Eventim,STOCK,"23,07 €"
70,678,Daimler N,STOCK,"69,32 €"
71,680,Danone,STOCK,"54,61 €"
72,681,Dassault Syst.,STOCK,"92,9 €"
73,683,De Longhi,STOCK,"16,13 €"
74,684,Derichebourg,STOCK,"2,49 €"
75,685,Deutsche Lufthansa  N,STOCK,"19,58 €"
76,686,Devoteam,STOCK,"18,37 €"
77,687,Direct Energie (Poweo),STOCK,"9,09 €"
78,939,DNCA I Miura - B -,FUND,"118,58 €"
79,940,DNCA I Miura - I - (260),FUND,"123,22 €"
80,941,DNCA Invest Infrastrcuture,FUND,"124,44 €"
81,942,DNCA Invest South European Opportunities - A -,FUND,"90,54 €"
82,943,DNCA Invest South European Opportunities - I - (260),FUND,"80,32 €"
83,689,eBay,STOCK,"50,49 $"
84,690,Eca,STOCK,"11,2 €"
85,944,Echiquier Agenor,FUND,"230,49 €"
86,945,Echiquier Agressor,FUND,"1740,08 €"
87,946,Echiquier Global 3D,FUND,"138,9 €"
88,691,Edenred,STOCK,"22,9 €"
89,692,EDF,STOCK,"25,765 €"
90,947,Edmond de Rothschild Europe Midcaps - A -,FUND,"342,57 €"
91,948,Edmond de Rothschild Flexible - A -,FUND,"138,18 €"
92,1020,Edmond de Rothschild Patrimoine - A -,FUND,"197,71 €"
93,949,Edmond de Rothschild Tricolore Rendement - C -,FUND,"308,82 €"
94,950,Edmond de Rothschild Tricoore Rendement  - D -,FUND,"222,98 €"
95,693,Eiffage,STOCK,"53,08 €"
96,694,Elekta -B- Fr,STOCK,"85,8 SEK"
97,695,Enel,STOCK,"4,17 €"
98,696,Engie,STOCK,"20,49 €"
99,697,Entercom Communic-A,STOCK,"10,34 $"
100,698,Environnement,STOCK,"27,4 €"
101,1031,epita_ptf_4,PORTFOLIO,1578015286091331400000000000 €
102,699,Eramet,STOCK,"93,6 €"
103,700,Esi group,STOCK,"27,34 €"
104,701,Essilor International,STOCK,"77,09 €"
105,702,Esso,STOCK,"37,83 €"
106,704,Eurazeo,STOCK,"63,01 €"
107,705,Eurofins Scientific,STOCK,223 €
108,951,Eurose - C -,FUND,"351,38 €"
109,706,Eutelsat Communications,STOCK,"25,725 €"
110,707,Evolis,STOCK,26 €
111,952,Exane Pleiade Fund - P -,FUND,"133,33 €"
112,953,Exane Pleiade Performance - P - (XPAR) (260),FUND,"129,12 €"
113,708,Exel Industries,STOCK,"59,5 €"
114,709,Ferragamo,STOCK,"22,19 €"
115,710,FFP,STOCK,"49,2 €"
116,711,Fidelity America - A -,FUND,"5,537 €"
117,712,Fidelity American Growth - AD -,FUND,"35,31 $"
118,714,Fidelity France Fund -AD-,FUND,"48,43 €"
119,715,Fidelity Selection Internationale - AD -,FUND,"45,68 €"
120,954,First Eagle Amundi International Fund - AU -,FUND,"6012,84 $"
121,716,Fonc.Des Regions,STOCK,"74,34 €"
122,717,Fountaine Pajot,STOCK,"19,13 €"
123,955,Fourpoints  America - R -,FUND,"195,46 €"
124,956,Franklin Templeton Asian Growth - AC -,FUND,"25,6 €"
125,957,Franklin Templeton Investment Fund - Franklin Mutual European Fund - A -,FUND,"23,53 €"
126,718,Fraport,STOCK,"55,2 €"
127,719,Frey,STOCK,"24,51 €"
128,958,GaveKal Asian Opps UCITS  - A  - (3230),FUND,"154,06 €"
129,720,Geberit N,STOCK,"298,8 S₣"
130,721,Gecina Reit,STOCK,"104,75 €"
131,722,Gemalto,STOCK,"79,46 €"
132,724,General Motors,STOCK,"34,86 $"
133,725,Generix Rgpt,STOCK,"2,04 €"
134,726,Genfit,STOCK,"24,25 €"
135,1021,GF Europe,FUND,"303,62 €"
136,727,Gl Events,STOCK,"17,4 €"
137,728,Goldman Sachs Group,STOCK,"160,03 $"
138,729,Groupe Eurotunnel Regroupement,STOCK,"9,781 €"
139,731,Guerbet,STOCK,"32,91 €"
140,959,H20 Adagio - R -,FUND,"117,23 €"
141,960,H20 Multibonds - R -,FUND,"156,35 €"
142,961,H2O Allegro - R -,FUND,"14908,73 €"
143,732,Harvest,STOCK,33 €
144,733,HeidelbergCement,STOCK,"63,6 €"
145,734,Heineken,STOCK,"51,65 €"
146,736,Hermes Intl,STOCK,"258,9 €"
147,962,HMG Globetrotter-C-,FUND,"206,52 €"
148,738,HSBC GI Indi Eq AC,FUND,"169,532 $"
149,740,Hyatt Hotels-A,STOCK,"61,34 $"
150,741,Iberdrola SA,STOCK,"5,296 €"
151,742,Icade,STOCK,"74,18 €"
152,743,IGE Plus XAO,STOCK,58 €
153,744,Iliad,STOCK,"233,55 €"
154,745,Imerys,STOCK,"62,95 €"
155,746,Infotel,STOCK,21 €
156,747,Ingenico Group,STOCK,"66,5 €"
157,748,Innate Pharma,STOCK,"9,18 €"
158,749,International Business Machines Cor,STOCK,"185,69 $"
159,750,Interparfums,STOCK,"33,4 €"
160,751,Intesa Sanpaolo,STOCK,"2,484 €"
161,752,Invesco Pan European Structured Equity - E -,FUND,"12,06 €"
162,753,IPSEN,STOCK,"35,72 €"
163,754,JACQUET METAL,STOCK,"16,67 €"
164,755,JC Decaux,STOCK,"29,695 €"
165,756,Jeronimo Martins,STOCK,"12,45 €"
166,759,Kaufman \u0026 Broad,STOCK,24 €
167,760,Kerry Group -A-,STOCK,"55,85 €"
168,761,Kone -B-,STOCK,"30,05 €"
169,762,Koninklijke Boskalis Westminster Nv,STOCK,"42,2 €"
170,763,Korian,STOCK,"26,51 €"
171,764,Krones,STOCK,"71,45 €"
172,765,L\u0027Oreal,STOCK,"127,25 €"
173,766,LafargeHolcim,STOCK,"78,65 S₣"
174,767,Lagardere SCA N,STOCK,"25,08 €"
175,768,Laurent Perrier,STOCK,"73,19 €"
176,769,LDLC.com,STOCK,"23,06 €"
177,770,Lectra,STOCK,"8,1 €"
178,771,Legrand,STOCK,"46,595 €"
179,772,Le Noble Age,STOCK,"15,97 €"
180,773,Lenovo Sp ADR,STOCK,"24,79 $"
181,963,Lutetia Patrimoine -P-,FUND,"110,41 €"
182,964,Lux Se Act Sol CC (260),FUND,"43,34 $"
183,774,Lvmh,STOCK,"144,7 €"
184,775,M\u0026G Global Dividend - A -,FUND,"19,3008 €"
185,776,M\u0026G Optimal Income Fd - A-H - Hedged,FUND,"18,2782 €"
186,965,Magellan C 4D,FUND,"17,42 €"
187,777,Maisons France Confort,STOCK,"35,12 €"
188,966,Mandarine Opportunites - R -,FUND,"876,83 €"
189,967,Mandarine Valeur   - R -,FUND,"496,35 €"
190,778,Manitou,STOCK,"12,85 €"
191,779,Manpower,STOCK,"81,98 $"
192,780,Manutan International,STOCK,51 €
193,781,Marine Harvest,STOCK,"72,1 NOK"
194,782,Mauna Kea Technologies - O -,STOCK,"9,95 €"
195,783,Maurel \u0026 Prom.,STOCK,"12,58 €"
196,784,McDonald\u0027s,STOCK,"102,03 $"
197,785,Mercialys,STOCK,"16,62 €"
198,786,Mersen (Excarbonl),STOCK,"22,15 €"
199,787,Metropole TV - M6,STOCK,"14,885 €"
200,788,MGI Coutier,STOCK,"149,94 €"
201,789,Michael Page Int,STOCK,"4,6 £"
202,790,Michelin Nom.,STOCK,"91,2 €"
203,791,MICROPOLE,STOCK,"0,78 €"
204,968,Moneta Lg Short A,FUND,"146,12 €"
205,969,Moneta Long Short  - R -,FUND,"123,84 €"
206,970,Moneta Multi Caps - C - (XPAR) (260),FUND,"198,2 €"
207,792,Morgan Stanley Investment Funds - Euro Corporate Bond Fund  - A -,FUND,"45,88 €"
208,971,Muzinich Short Duration High Yield Fund Hedged EUR Accumulation R Units,FUND,"116,59 €"
209,793,NATIXIS,STOCK,"5,078 €"
210,972,Natixis Actions US Value (260),FUND,"163316,4 $"
211,794,Naturex,STOCK,"66,36 €"
212,795,Neopost,STOCK,"58,42 €"
213,796,Nestle,STOCK,"70,2 S₣"
214,797,Netflix,STOCK,"422,06 $"
215,798,Neurones,STOCK,"14,45 €"
216,799,Nexans,STOCK,"43,085 €"
217,800,Nexity -A-,STOCK,"30,85 €"
218,801,Nike -B-,STOCK,"76,72 $"
219,802,Nokia,STOCK,"5,94 €"
220,973,Norden,FUND,"162,57 €"
221,803,Novartis,STOCK,"79,75 S₣"
222,804,NRJ Group,STOCK,"8,51 €"
223,805,Nucor,STOCK,"50,39 $"
224,806,Nvidia,STOCK,"18,94 $"
225,974,Objectif Small Caps France - A -,FUND,"1250,27 €"
226,975,OCEA Actions Rendement Euro - D -,FUND,"870,6 €"
227,976,Octo Credit Convictions  - A - (260),FUND,"11552,78 €"
228,977,Oddo Avenir  - DR -,FUND,"2278,01 €"
229,978,Oddo Avenir Euro - CR -,FUND,"180,17 €"
230,979,Oddo Immobilier - A -,FUND,"1049,76 €"
231,807,Oeneo,STOCK,"4,34 €"
232,808,OL Groupe,STOCK,"2,26 €"
233,809,Onxeo,STOCK,"8,49 €"
234,810,Orange (France Telecom),STOCK,"12,03 €"
235,811,ORANGE BELGIUM,STOCK,"14,62 €"
236,812,Orege,STOCK,"5,13 €"
237,813,Orpea,STOCK,"52,34 €"
238,981,Oyster European Opportunities,FUND,"396,45 €"
239,814,Panasonic  (JPY),STOCK,1122 ¥
240,815,Pandora,STOCK,412 DKK
241,816,Parmalat,STOCK,"2,512 €"
242,817,Parrot,STOCK,"19,15 €"
243,818,Patrimoine et Commerce Regroupement,STOCK,"21,76 €"
244,819,Pernod Ricard,STOCK,"89,55 €"
245,982,Petercam Equities Euroland  - B -,FUND,"145,01 €"
246,983,Petercam Equities Europe Sustainable,FUND,"209,29 €"
247,820,Peugeot,STOCK,"10,34 €"
248,821,Philips Koninklijke,STOCK,"23,265 €"
249,984,Pictet - Biotech - P - USD (260),FUND,"456,24 $"
250,985,Pictet Digital Communication - P -,FUND,0 €
251,986,Pictet - Global Megatrend Selection - P - EUR (3230),FUND,"134,52 €"
252,987,Pictet - Premium Brands - P - EUR,FUND,"127,17 €"
253,988,Pictet - Security - P - EUR,FUND,"121,52 €"
254,989,Pictet Timber - P -,FUND,"148,57 $"
255,990,Pictet - Water - P - EUR,FUND,"208,03 €"
256,991,Pictet - Water - P- USD (260),FUND,"249,43 $"
257,822,Plastic Omnium,STOCK,"24,56 €"
258,992,Pluvalca Allcaps - A -,FUND,"328,28 €"
259,993,Pluvalca France Small Caps - A -,FUND,"472,24 €"
260,994,Polar Capital North American Fund USD - I - (XDUB) (3231),FUND,"16,08 $"
261,995,Portzamparc PME,FUND,"236,51 €"
262,823,PPG Industries,STOCK,"202,33 $"
263,824,PPR (Kering),STOCK,"162,05 €"
264,825,Prada S.P.A.,STOCK,"5,468 €"
265,826,Precia,STOCK,88 €
266,996,Prevoir Gestion Actions - C -,FUND,176 €
267,827,Prodware,STOCK,"9,61 €"
268,829,PSB Industries,STOCK,"45,55 €"
269,830,Publicis Groupe,STOCK,"63,26 €"
270,831,PVH,STOCK,"131,33 $"
271,997,R Club - F -,FUND,"144,41 €"
272,832,Red Hat,STOCK,"50,05 $"
273,998,Renaissance.Europe - C -,FUND,"104,31 €"
274,833,Renault,STOCK,"68,88 €"
275,834,Rexel,STOCK,"16,905 €"
276,835,Roche Holding,STOCK,264 S₣
277,836,Rockwool International -B-,STOCK,1090 DKK
278,837,Rothschild \u0026 Co,STOCK,"17,8 €"
279,999,Rouvier Patrimoine Reg S - C -,FUND,"55,22 €"
280,838,Royal Dutch Shell classe A,STOCK,"29,01 €"
281,839,SAFRAN,STOCK,50 €
282,840,Saint Gobain,STOCK,"41,935 €"
283,841,Salesforce.Com,STOCK,"52,38 $"
284,842,Sanofi,STOCK,"78,19 €"
285,843,SAP,STOCK,"55,8 €"
286,845,Schlumberger,STOCK,"76,09 €"
287,846,Schneider Electric,STOCK,"69,44 €"
288,847,Scor,STOCK,"24,71 €"
289,848,Seb,STOCK,"66,09 €"
290,849,Seche Environnement,STOCK,"31,5 €"
291,1000,Sextant Grand Large - A -,FUND,"324,14 €"
292,1001,Sextant PEA  - A -,FUND,"617,57 €"
293,1002,Sextant PME A 4D,FUND,"129,26 €"
294,850,Sharp Corporation Osaka,STOCK,"2,076 €"
295,851,Siemens N,STOCK,"97,96 €"
296,853,Siph,STOCK,"34,54 €"
297,854,Societe Generale,STOCK,"42,11 €"
298,855,Sodastream International,STOCK,"36,85 $"
299,856,Sodexo,STOCK,"79,27 €"
300,857,Solvay,STOCK,"118,75 €"
301,858,Sopra Steria Group,STOCK,"84,25 €"
302,860,Sqli Regroupement,STOCK,"20,9 €"
303,1003,Stamina Patrimoine - R -,FUND,"142,67 €"
304,861,Stanley Black And Decker,STOCK,"87,5 $"
305,862,Stentys,STOCK,"9,98 €"
306,863,Stmicroelectronics,STOCK,"7,164 €"
307,864,Store Electronic,STOCK,"15,99 €"
308,865,Suez,STOCK,"14,985 €"
309,866,Swiss Re,STOCK,"79,6 S₣"
310,867,Sword Group,STOCK,"19,86 €"
311,1004,Sycomore L/S Market Neutral - I -  (XPAR) (260),FUND,"102,02 €"
312,1005,Sycomore L/S Opportunities - A -,FUND,"312,17 €"
313,1006,Sycomore L/S Opportunities - R -,FUND,"303,23 €"
314,1007,Sycomore Selection Responsable - I - (260),FUND,"287,57 €"
315,868,Symrise,STOCK,"39,6 €"
316,1008,Synergy Smaller Cies A,FUND,"521,05 €"
317,1009,Synergy Smaller Cies FCP -R-,FUND,"500,05 €"
318,1010,Talence Optimal,FUND,"96,53 €"
319,869,Taubman Centers Inc,STOCK,"75,31 $"
320,870,Technicolor RGPT,STOCK,"5,41 €"
321,871,TE Connectivity,STOCK,"59,68 $"
322,872,Telecom Italia,STOCK,"0,926 €"
323,873,Teleperformance,STOCK,"45,51 €"
324,874,Terreis,STOCK,"24,4 €"
325,875,Tesla Motors,STOCK,"204,7 $"
326,876,TF1,STOCK,"13,17 €"
327,877,Thales,STOCK,"45,3 €"
328,878,The Swatch Grp,STOCK,529 S₣
329,879,Tikkurila,STOCK,"20,25 €"
330,1011,Tocqueville Ulysse - D -,FUND,"38,38 €"
331,880,Tod\u0027s,STOCK,"99,45 €"
332,881,Total,STOCK,"51,47 €"
333,882,Transgene,STOCK,"10,09 €"
334,883,Trigano,STOCK,"18,12 €"
335,1012,UBAM - Neuberger Berman US Equity Value - IC - USD (260),FUND,"1062,32 $"
336,885,UBISOFT ENTERTAIN.,STOCK,"14,73 €"
337,1022,UBS (F) - Flex Court Terme - R -,FUND,"5940,56 €"
338,886,UBS (Lux) Equity fund - Asian Consumption (USD),FUND,"110,37 $"
339,1014,UBS (Lux) Equity SICAV - USA Growth - P -,FUND,"24,3 $"
340,887,UCAR,STOCK,16 €
341,888,UCB,STOCK,"58,34 €"
342,890,Unilever Cert,STOCK,"31,925 €"
343,892,Union Cash - C -,FUND,"510173,42 €"
344,1015,Union PEA Securite (260),FUND,"10733,73 €"
345,1016,UOB Global Paradigm USD -B- (260),FUND,"273,61 $"
346,894,USG Corp,STOCK,"30,13 $"
347,895,Vallourec,STOCK,"40,145 €"
348,896,Veolia Environn.,STOCK,"14,105 €"
349,897,Vestas Wind Systems,STOCK,273 DKK
350,898,Viacom-B,STOCK,"86,7 $"
351,899,Vicat,STOCK,"62,05 €"
352,900,Vilmorin Cie,STOCK,"98,25 €"
353,901,Vinci,STOCK,"54,45 €"
354,902,Virbac,STOCK,"171,45 €"
355,903,Vivendi,STOCK,"19,405 €"
356,904,Volvo,STOCK,"95,95 SEK"
357,1017,VP Obl.igations Euro Rendement - D -,FUND,"506,24 €"
358,905,Wacker Chemie,STOCK,"84,74 €"
359,906,Wavestone,STOCK,"37,18 €"
360,907,Wendel,STOCK,"110,65 €"
361,908,Whitbread,STOCK,"41,98 £"
362,909,Wirecard,STOCK,"32,485 €"
363,911,W R Grace,STOCK,"92,38 $"
364,912,XPO Logistics,STOCK,115 €
365,,,,
